Virtuoso/202107/Virtuoso_Project/tsv_simu/tsv_simu/vcd_files/old/random_13x13_10000.vcd
$date
	Mon Jan 11 07:10:29 2021
$end
$version
	QuestaSim Version 2020.1
$end
$timescale
	1ps
$end
$scope module Gen_Random169 $end
$var reg 36 ! data [35:0] $end
$upscope $end
$enddefinitions $end
#0
bx !
#5000
b0 !
#15000
b100001111010001011010101101101111110 !
#25000
b111001110111000010000110100010010001 !
#35000
b101111111011110000100101100101110111 !
#45000
b110001000111111111000101111111011110 !
#55000
b111110010000000101110000111011000101 !
#65000
b101000101111110111001011110100110100 !
#75000
b111110101101111100100010101010101010 !
#85000
b101101000100000100011010111010110 !
#95000
b111010011100000001000100101011011010 !
#105000
b1001110000100110110101101111010011 !
#115000
b100000001101100000100010011001001010 !
#125000
b10010011100101111111110001000001001 !
#135000
b10111110000110111101101000010100100 !
#145000
b10011010101000000111110100001111101 !
#155000
b10111011100100101101001100111000001 !
#165000
b110011011011010110100100000101100111 !
#175000
b100010010111110111000010000101101100 !
#185000
b10111100100101001101111000010100011 !
#195000
b100010100010101100001100110101110010 !
#205000
b110011000010101011100111101111000001 !
#215000
b101111111001111000111000101011101111 !
#225000
b101000011001011010100001110101101100 !
#235000
b11110000001100011010011010111101001 !
#245000
b101011110011011010101000111110101001 !
#255000
b1011111011100110001010010100000000 !
#265000
b111000111011000000110111010010010010 !
#275000
b110101000110111111100111011000000101 !
#285000
b101110010111111110001011101101110000 !
#295000
b100001010100110101100100101111001110 !
#305000
b100010010000001100010100010110111011 !
#315000
b1000001010110010000100010011011 !
#325000
b110110011111011010110010100111101111 !
#335000
b111000010100101001001000101111000001 !
#345000
b10110010100011000100000111101101101 !
#355000
b10111011001000001101001101011111101 !
#365000
b111100100011101011110011100110000101 !
#375000
b110101010000000101101101011100011100 !
#385000
b1001010000101111001010100100100000 !
#395000
b110101011101110000010000000010010001 !
#405000
b11001101100111100011101100100100011 !
#415000
b10110001001111111000111010010111100 !
#425000
b110000101100000010100011010101100001 !
#435000
b110100111111110111001111001010000010 !
#445000
b1101110110001010010100001110000101 !
#455000
b101110010001110100111101101010100011 !
#465000
b110111101111010111100011011000110000 !
#475000
b11010110000101011011110011111001101 !
#485000
b11000001100110011011100000111001000 !
#495000
b111101110001100110000110111001010100 !
#505000
b111000100001010001000011011011101001 !
#515000
b11111101100110101100111010111001011 !
#525000
b101010111101001110111010001110110110 !
#535000
b11101111000101111010000101111000001 !
#545000
b111111101111000000101111111010111111 !
#555000
b100110110100100000000000110010111011 !
#565000
b11111011110001110110100110110010100 !
#575000
b110110010001100110110010010011111011 !
#585000
b1011101101011011001011110101010101 !
#595000
b11101001100000110100001100000100001 !
#605000
b1100110001011001101001000110000110 !
#615000
b110101011110101110100110011100110110 !
#625000
b111110101001001100010000000100001 !
#635000
b10000111101001000110000111001011001 !
#645000
b11011001001100111111011011010000110 !
#655000
b111100110101001000011011010110101111 !
#665000
b1010100110000100010100111101100 !
#675000
b110010000001110101011000011010101110 !
#685000
b11110011011000011010110001101101101 !
#695000
b100110001100100000111111111010010011 !
#705000
b101101011100100000101011100000000100 !
#715000
b1100110110010111110111001000110101 !
#725000
b111000100001110111100110000000111100 !
#735000
b1000001001110001010000111000001010 !
#745000
b110001010001011011000111001111101 !
#755000
b1000001100100010000001111100110111 !
#765000
b110011000001111010001001001000110 !
#775000
b110110111001100010111110001001000110 !
#785000
b101111011100010100101001000001010101 !
#795000
b10000110111101010001010100111011100 !
#805000
b110110010110111000111100101111001110 !
#815000
b11011000111001111010000010110001 !
#825000
b1100111111110110100100100001011 !
#835000
b111011011001101110010110110100010101 !
#845000
b11111110010010011010111110010011100 !
#855000
b100110010110000111110101000001111011 !
#865000
b111101100001100110111001010000110011 !
#875000
b100001001000001100101110000110001001 !
#885000
b1001000100011101100011011011111 !
#895000
b1001100111011101001011101101110010 !
#905000
b100001011010110010010111100100011101 !
#915000
b1101110111110110010101110100010110 !
#925000
b101010000111101101010000001100111001 !
#935000
b110011111111111100000000000111001100 !
#945000
b100001000101001010101110110100100000 !
#955000
b10111101010011000010011011010100001 !
#965000
b11000100000001011100000110010000111 !
#975000
b11110010000100111101101010000101 !
#985000
b111101100011110011010111111011100 !
#995000
b100001100111100111001010111101101111 !
#1005000
b110101011111000001101001011110011 !
#1015000
b1110011011000000101101010000011010 !
#1025000
b101011110011010010110111110001011101 !
#1035000
b100100110101001001010001110101010100 !
#1045000
b1011011111011100111101110011110110 !
#1055000
b1011100000100111001101000000010001 !
#1065000
b100000011011010100101110010101100001 !
#1075000
b110000000101100100001100100110000001 !
#1085000
b10001110001000100001100100001101100 !
#1095000
b10000011000001010101011111010111111 !
#1105000
b10010111110111000111110100111000001 !
#1115000
b110100101000000111100101011011011001 !
#1125000
b111110111010011100111101000001100111 !
#1135000
b101011010110111111000011110000000101 !
#1145000
b101101000111110011010000111110000001 !
#1155000
b101011100101010001010011100100001010 !
#1165000
b100010011110010000110111100010011000 !
#1175000
b111011101111110111111110010011000111 !
#1185000
b10100111101000100011111111011011001 !
#1195000
b101101101010000110000110100111010011 !
#1205000
b101100000110000101100011010111000000 !
#1215000
b101010011010000010000101011011010100 !
#1225000
b10001111001111001110011101111110111 !
#1235000
b10110100101110000110110001011111001 !
#1245000
b111100110001100111110000110110110101 !
#1255000
b11000110111001110001001110000011100 !
#1265000
b101101111111000101110010000111010110 !
#1275000
b110110111101101001000111010100000011 !
#1285000
b11101100111100011111000111011100100 !
#1295000
b110000111010000101110100101001110 !
#1305000
b110110111011111000111100001110001011 !
#1315000
b10000100111000111110111010100011011 !
#1325000
b110000100111010001100010001010001000 !
#1335000
b111010101110001111001010110011001011 !
#1345000
b110001100100101111011000000011101101 !
#1355000
b110011110010101111111010010101111 !
#1365000
b10001011000001000110010101010001001 !
#1375000
b111010111000000111100001111010001010 !
#1385000
b100101101100101000110000000001010010 !
#1395000
b111111011011111001001000111010111110 !
#1405000
b101000100001101000111010111010101010 !
#1415000
b11000001011000110101011001000100010 !
#1425000
b101000101110011000000000110111010111 !
#1435000
b101111011001011101000011010101000010 !
#1445000
b111010111111100010001110011101110101 !
#1455000
b11111101110001010101010001110110010 !
#1465000
b101011001110110100111000011100100001 !
#1475000
b11001000101100011100010001001010100 !
#1485000
b100000001100011000100110000111101110 !
#1495000
b100010100100101011110001101110011000 !
#1505000
b100111001001011111000101100100101111 !
#1515000
b111101100101111001000110001111111010 !
#1525000
b1000010001111001100000101001111100 !
#1535000
b110110111011001001111110011101001001 !
#1545000
b100011101100110100011001010000100000 !
#1555000
b111010000100010011111001101000011000 !
#1565000
b100001100110101000011101010011101100 !
#1575000
b10010110100111100101010010001000100 !
#1585000
b101010010101101110001001110101111100 !
#1595000
b110110010101000000010010101100110010 !
#1605000
b100100110111010111111111010000101101 !
#1615000
b111011010100111001001010000010000 !
#1625000
b110000011000001100011001111100000110 !
#1635000
b11011011000001011100000110101101101 !
#1645000
b1001111101100111101001010101000 !
#1655000
b10010111101011001001101110100100110 !
#1665000
b1100001100110010000110100001000100 !
#1675000
b101000111101100001011010100011111010 !
#1685000
b100100000111101011101110010101110110 !
#1695000
b101111101100110000111100101011000101 !
#1705000
b111111111100110011010101001001100101 !
#1715000
b101101101011001100100100111011110001 !
#1725000
b11010010011110000001010001101101111 !
#1735000
b110000000110011111111100001001011000 !
#1745000
b1100000111000100111101100100101000 !
#1755000
b100101000011011100001110110001011100 !
#1765000
b100100000100011001001100111011001001 !
#1775000
b111101011110101000101110000100101000 !
#1785000
b110001001011101001111010001100001000 !
#1795000
b10000001110110000001010100001111011 !
#1805000
b100011101010010111111011000011101000 !
#1815000
b11111100110100011011001110100110000 !
#1825000
b10011010011101010001111100111011001 !
#1835000
b110001000001111100101101011001011101 !
#1845000
b100010110110101100000011100010110101 !
#1855000
b10000010101011110101001100100001001 !
#1865000
b10010011000000100100100111011010011 !
#1875000
b111000011110000000010011100011010101 !
#1885000
b10011110011000000000010100101111011 !
#1895000
b10011110101011111011101101111001001 !
#1905000
b10011101110111101000111110100010101 !
#1915000
b101110000011100110001110111000010111 !
#1925000
b111000111101000010010011110100010111 !
#1935000
b10110000010111100000110010111011100 !
#1945000
b100000110111111001010111010010001001 !
#1955000
b111111101111011111110000110101110010 !
#1965000
b10001011001110100011110010011011 !
#1975000
b111001001111011110000101000111101010 !
#1985000
b110101101000101010001010001011011101 !
#1995000
b10100100110001100011001110000101001 !
#2005000
b10001001001000100010001011111000 !
#2015000
b10100100100101110011000001101001101 !
#2025000
b1010000100001111110111110000010111 !
#2035000
b1010110010000101101001011011101011 !
#2045000
b101011111110110011000011110001001100 !
#2055000
b101110010010111001111111110110101 !
#2065000
b1011011010001110111101001001100001 !
#2075000
b100010110011100100011111001110100000 !
#2085000
b111111011011110110011110101000111110 !
#2095000
b10101110111111010111100011011111111 !
#2105000
b101100000100001110101100101111111100 !
#2115000
b10101001111000111011110011001111001 !
#2125000
b10011110010100111101100000111111110 !
#2135000
b111101011010010011000011110111101110 !
#2145000
b100011101110111101100000100101001 !
#2155000
b11001110011101000001101010010001010 !
#2165000
b101100010001000011111010101100111011 !
#2175000
b100110100010101101110000001101 !
#2185000
b11100110011110000000101000010011111 !
#2195000
b111001101110000110011000101001011000 !
#2205000
b1111110011100010011000011100000100 !
#2215000
b11000001110010101110001100100010101 !
#2225000
b10000101011100000101011001111010100 !
#2235000
b111110111011110100110110111110101101 !
#2245000
b110010000000010001001001001101011100 !
#2255000
b100011110110100101000010001110000111 !
#2265000
b1011111111010111000111001111011010 !
#2275000
b100000111000100011011001011100110010 !
#2285000
b11110000010111010000111101111101110 !
#2295000
b1101110001111010111111011011111010 !
#2305000
b10010001100000010111000011100000100 !
#2315000
b10100010000111011000100101010110011 !
#2325000
b100110001101110001111001001010100110 !
#2335000
b11010101011100101110001100101001001 !
#2345000
b111010110010110110100100011101010011 !
#2355000
b11111110011101000011011101100000010 !
#2365000
b110111100110001001010010011000101 !
#2375000
b1100001000000011001111000001001 !
#2385000
b10110011111101011110010000101111 !
#2395000
b11110001100001001001010100010010101 !
#2405000
b101110110110110111001100011000101010 !
#2415000
b110101110000111001011111101110111011 !
#2425000
b1110110000100111010001111100010000 !
#2435000
b100111101001000111110111000111000101 !
#2445000
b1110101100011101010111111100001000 !
#2455000
b1000010111001110111110001010111 !
#2465000
b110100001111010101000100001000111100 !
#2475000
b111101000000010011110101110100001100 !
#2485000
b11011010111100110110110011000010110 !
#2495000
b11100011011010110100100010101001001 !
#2505000
b111101011111000001001011101101000 !
#2515000
b111001110111010101001111100001101010 !
#2525000
b110000001110000101011110101001010010 !
#2535000
b101100011101101111001111101101101 !
#2545000
b101110011010111010000001000010 !
#2555000
b110011111001110110110110010111010 !
#2565000
b10001111110100110111111000000101010 !
#2575000
b10010010000111010010000110110101111 !
#2585000
b10011111110110110001010011001110 !
#2595000
b10000001101000000011010001100111100 !
#2605000
b100001001110000111110110011110 !
#2615000
b111001101110011011001100100100000110 !
#2625000
b101111101011100011011100101000010000 !
#2635000
b10001101011000011111010111101100000 !
#2645000
b110111100001011011101100101000010 !
#2655000
b110100010100110001011101101001101011 !
#2665000
b111111111100011111100101001101101110 !
#2675000
b101000100000101110000101110001100110 !
#2685000
b11100100100111111101011110000011010 !
#2695000
b1111001010000000011111001000101101 !
#2705000
b100010100111001101010010010000111100 !
#2715000
b10100011111110100001011110000011110 !
#2725000
b101100100101000010011010011111011010 !
#2735000
b10110111011000010010100101111001110 !
#2745000
b101101001000001110000011101111 !
#2755000
b10110011010010011100000111000000000 !
#2765000
b111110100001001010011101010111111101 !
#2775000
b10011111111101010111001001011111000 !
#2785000
b100100100010000010101111111011100110 !
#2795000
b111000110110110001111110000100001010 !
#2805000
b100000110111111101000111111111100 !
#2815000
b10011000011010011001001100110101101 !
#2825000
b110000110001010111000011001110011101 !
#2835000
b1000100101010101100111010011010 !
#2845000
b110101010001111001111110000010000001 !
#2855000
b100110101010111011000101001011100011 !
#2865000
b1010001110101010001100100000011100 !
#2875000
b101100100111011001011111100010000111 !
#2885000
b1111000101011011011011010000100111 !
#2895000
b100011001100000011000100010010100010 !
#2905000
b10010010110010010010100000100110001 !
#2915000
b110011011001010011011111100100101100 !
#2925000
b11011100101000010110001010000010100 !
#2935000
b101101011000110111111010010000011011 !
#2945000
b110111010110101101100111001101000 !
#2955000
b100111000001110011001000011101101000 !
#2965000
b101111000010000110100010111100010 !
#2975000
b10011000010011110100100101110111011 !
#2985000
b11000000110100110000001110011101010 !
#2995000
b110001110101011100111011011000001101 !
#3005000
b101100010010000000100101101001001000 !
#3015000
b100000101010101100110010000100110001 !
#3025000
b101010100011101010011111110100011011 !
#3035000
b100011110001010011100011110100010100 !
#3045000
b100011111010111010111010100111111 !
#3055000
b111100011101001100011000000100011000 !
#3065000
b1011101111111111111000101001000110 !
#3075000
b10101000100000101101101110101110000 !
#3085000
b110000010000011011110001111001010000 !
#3095000
b1110110110011101101000000110011000 !
#3105000
b111000100100001110001011110000100001 !
#3115000
b1101001001111000001111101001011 !
#3125000
b101010001010111100000000110011111001 !
#3135000
b111100111111001010001011011101010000 !
#3145000
b101110111011010011010100100010011011 !
#3155000
b10100010100100011000110011101011101 !
#3165000
b101001011011010111011011010001100101 !
#3175000
b1001100010001110000101100011110101 !
#3185000
b100011110000111101110101001110000111 !
#3195000
b101011000010010000101101011100000110 !
#3205000
b10111110101110110100111111100000000 !
#3215000
b10100000101100011011001001110100100 !
#3225000
b101010001100100000101100000010001100 !
#3235000
b110000001111000111010011000001001011 !
#3245000
b100111111111101100001110101110101101 !
#3255000
b10110111110011100100000011100101001 !
#3265000
b10001110111000011111100010110001 !
#3275000
b10110110011000011001001100101110 !
#3285000
b101011111001110001101001100010110100 !
#3295000
b101010100010101110110000111010010110 !
#3305000
b110010100101110000100110001011111101 !
#3315000
b101101101110000111001001000111101111 !
#3325000
b111110101100100011000111101101011010 !
#3335000
b11110110101110101001000101101 !
#3345000
b110101111100110011101111010101000110 !
#3355000
b111100110110111010001100110101001000 !
#3365000
b111111010000111001000111010110100100 !
#3375000
b111110011010000101000101111110000010 !
#3385000
b1001100100000101100101000101101000 !
#3395000
b11010011101000111100011001000000110 !
#3405000
b11011110100011001011000000011001011 !
#3415000
b10000000101000100101110110000010010 !
#3425000
b100000100010000111101101111010011010 !
#3435000
b111011110000000000000110101111111011 !
#3445000
b110001110110101101001101111000111010 !
#3455000
b110101000100100010101111100100100110 !
#3465000
b111100111011011101011111101000101110 !
#3475000
b11110100111011111101000011000000011 !
#3485000
b111110101101101111010011000011110010 !
#3495000
b111100000000000000100001110010001 !
#3505000
b10101000000111010111001001110000010 !
#3515000
b10110101000010101000001110010011010 !
#3525000
b1101001000101000111001000001111101 !
#3535000
b111010101000111001110100001111000111 !
#3545000
b111101101000001010110100110101001011 !
#3555000
b1100001000111110111110010000110100 !
#3565000
b101111001001000011111001011111111000 !
#3575000
b100101011000010101111011011000011001 !
#3585000
b1000011011110101000101100110000100 !
#3595000
b11000100011101100011000111111110 !
#3605000
b101001001110110110001100000111111100 !
#3615000
b10111000100110111110001011111111 !
#3625000
b110100011010110100011001010100000110 !
#3635000
b1011110010011101100010001001011101 !
#3645000
b11000011000110011110101110011010101 !
#3655000
b101111111100000101001000111000110111 !
#3665000
b110011101100011001111000111001010000 !
#3675000
b111010001110101000111111010011111110 !
#3685000
b101100000100000100110101011000111100 !
#3695000
b100011100110100000111100000111100110 !
#3705000
b1000110010110110000111010110111010 !
#3715000
b110111011011111000000111110000001110 !
#3725000
b100110101001111001011100010110110000 !
#3735000
b10000000111011011100010011101110011 !
#3745000
b100011100110111101110001111001000101 !
#3755000
b100010100011100000111001001011000100 !
#3765000
b101001100101101111011001100010100010 !
#3775000
b111010001101100111101001011010010100 !
#3785000
b101110100000011110100101001101001110 !
#3795000
b101011010110110001101100110001101111 !
#3805000
b1000111010000111100111101100010111 !
#3815000
b111001100110110010010000011101011 !
#3825000
b1101001101010010100001111011011100 !
#3835000
b11111000100111000011001100011101011 !
#3845000
b11010101110011111000011000011011100 !
#3855000
b100100100011001111110110101100010001 !
#3865000
b100100000000101011101010011011011100 !
#3875000
b10000000111100011101100110011001010 !
#3885000
b100001011011110011110011001100101111 !
#3895000
b111110010000010000100010100011001000 !
#3905000
b10110101100100000011110110001110001 !
#3915000
b11100011100101010001100111110001100 !
#3925000
b101010011010011001010010110001001110 !
#3935000
b100101000101001100000111100000 !
#3945000
b100110010101101001100010100110010001 !
#3955000
b101011101010111111101000001100111101 !
#3965000
b101101000000001111101111110011000 !
#3975000
b1000001001011010111010110110101101 !
#3985000
b111110101011101101010111110001000010 !
#3995000
b110111010111111100111010111010101110 !
#4005000
b100011010001001110101011101001111 !
#4015000
b111001111111100100110110001010001000 !
#4025000
b11010001111111110011001001111100010 !
#4035000
b10100011010000001110010000001011 !
#4045000
b10111001010001100111000010110111010 !
#4055000
b110110100101110010011101100101010000 !
#4065000
b101110000011000111101101101010011010 !
#4075000
b11011110100010000101100011011010111 !
#4085000
b110100101001011010000010111101101 !
#4095000
b111110110111000011010100011101000101 !
#4105000
b100101010111100101101100010111111010 !
#4115000
b110100101001010001101001111011111101 !
#4125000
b1011001011010011010011101111000011 !
#4135000
b11010000010000101111010111011001101 !
#4145000
b101010110000111101101010000010011 !
#4155000
b11111100101100100110100011111111111 !
#4165000
b110111011000001000111000001011000001 !
#4175000
b111011100111000001100111010111001100 !
#4185000
b11011001101111011011100110101010111 !
#4195000
b111011101011111000010000000001001 !
#4205000
b110101010100000001111111010111111111 !
#4215000
b111000101010000110111010000111100011 !
#4225000
b100110111010110000110001100000111100 !
#4235000
b111000100000011010000001110100010010 !
#4245000
b110101111111110100000101001000011010 !
#4255000
b11110101100100011111101011010011000 !
#4265000
b100111010000100101001100100001000001 !
#4275000
b10110001000101001101100100010111 !
#4285000
b11101001111001100101111000011100000 !
#4295000
b10010101111001001001101010101010 !
#4305000
b111010111011101000000011000101111010 !
#4315000
b111010000000111100111010101101111110 !
#4325000
b111011000001111010000100111011011111 !
#4335000
b111001011010000000001000110101110100 !
#4345000
b11100000100000101101000101001100111 !
#4355000
b100011010110110100000101110001000011 !
#4365000
b1100010011111011110011111000100 !
#4375000
b11001100100000011100000000111001010 !
#4385000
b111110101011011010000110010000000111 !
#4395000
b100011000011101010100110011001111 !
#4405000
b11110100000011100000011000011100001 !
#4415000
b110111011011010001101010010001000101 !
#4425000
b10001111011100100011111001111010 !
#4435000
b101010100110010101011001001001101100 !
#4445000
b11111001000000011101110100000011010 !
#4455000
b1000111011010010011111110010010000 !
#4465000
b110010100100001111110101110001110101 !
#4475000
b10010111111000010111000111010001011 !
#4485000
b111001101001011100111000100000110 !
#4495000
b110011000010001100001101101110110 !
#4505000
b111001010000001001010001011011000101 !
#4515000
b10011000011111010011010110110011 !
#4525000
b101010111101100010011011111100111011 !
#4535000
b110110000111011000000000110101000110 !
#4545000
b100100001111100000100011100101001110 !
#4555000
b111111010101001111011111001100111111 !
#4565000
b10100001101110100100010001101101100 !
#4575000
b110000110001111000110011111110000000 !
#4585000
b10010111100010101110111101010100101 !
#4595000
b111010100100011100110111111010001 !
#4605000
b10000111001111100110110111101110001 !
#4615000
b100101010010111011100010111111111100 !
#4625000
b111101010100001110111111011110110011 !
#4635000
b110100100111001010011011101101000010 !
#4645000
b101101000011110011001011001111101001 !
#4655000
b11011101011011111001111111010100110 !
#4665000
b101000110101001000110110100100001001 !
#4675000
b11010001010001100101010100000101100 !
#4685000
b100001001001010100010011000110010011 !
#4695000
b11111110110111101011111111110110000 !
#4705000
b101101001100110010010100101110001000 !
#4715000
b11101110101010010110100010000011010 !
#4725000
b111000000100011100101110001101000110 !
#4735000
b101010001000110000001010111111101 !
#4745000
b1000100000110001011001111111101011 !
#4755000
b111101101100011100001111011001000100 !
#4765000
b10010110111110100000000010000011111 !
#4775000
b1101111000100000101001101110110100 !
#4785000
b100101100010110010110101001100101110 !
#4795000
b110000100110110011110101001101111110 !
#4805000
b1000001100100000011011000011111110 !
#4815000
b1001001010010000000010100100011110 !
#4825000
b10101010101001010110100100100011011 !
#4835000
b100100001101111110011001100111011000 !
#4845000
b101100110111101011011111101100101 !
#4855000
b101011011011001101010011000001100011 !
#4865000
b101010001101110000001110000100101011 !
#4875000
b110110111111010010010000010110001 !
#4885000
b101100001000100101001110110101111011 !
#4895000
b11110100110010100100011111100100010 !
#4905000
b11110010011100100100000001011111001 !
#4915000
b101101101100111011111110011100010 !
#4925000
b101001111000110110011100111000001 !
#4935000
b100110101100111101010000000111101011 !
#4945000
b101110101010111010010110101000111100 !
#4955000
b110000110010110110100000001001101101 !
#4965000
b110110011110110110000001110100010010 !
#4975000
b110000111101000001011010100101111001 !
#4985000
b100000110111111000011111001111110010 !
#4995000
b100100111111000010111111110001101000 !
#5005000
b100001111011000001100110101101110010 !
#5015000
b1100111111001101101010111100110 !
#5025000
b110101010111110101001111100111001111 !
#5035000
b111011101101001010101110011101000011 !
#5045000
b10110000101000100110010010111000110 !
#5055000
b111101101000100100001010010010100110 !
#5065000
b111101010001101111101101111111111 !
#5075000
b110111010101100111000101011011101010 !
#5085000
b111100011111010001010011101101110000 !
#5095000
b110110011101111000110010100101011001 !
#5105000
b11101001101110000111001110111001100 !
#5115000
b101010010010101000100011010111110011 !
#5125000
b111001010010111000111011000101111110 !
#5135000
b111011011100111111101011101111100001 !
#5145000
b100010000000011100011101101110111011 !
#5155000
b100101001011100010110110100000001 !
#5165000
b10010010111101110001101110010011010 !
#5175000
b11101101010110011011101001100000100 !
#5185000
b100001010110001100111010100001001 !
#5195000
b1110010110010100001011010011011010 !
#5205000
b110000101100101000100011111110000010 !
#5215000
b101100000010110100001111011111010100 !
#5225000
b110100111010101101001100010111101000 !
#5235000
b1011000001101111100111011000111000 !
#5245000
b11101001100000101011011000001 !
#5255000
b1010011111101010111000001000000111 !
#5265000
b110111011000000001000010101110010000 !
#5275000
b10101001001100111011010110011110 !
#5285000
b101010010110110010100011011000111000 !
#5295000
b101111111111101110111000111100001110 !
#5305000
b100110100011111011010101111001111 !
#5315000
b1000110110010001111101010011110100 !
#5325000
b1001110101000011000101110110100101 !
#5335000
b10001011011001001110000110110010001 !
#5345000
b111010101010100011111010101101101100 !
#5355000
b101100001010001010111000011101001101 !
#5365000
b1010010010010010110001010101111001 !
#5375000
b110001011100101010110111101110101001 !
#5385000
b101001001011000110010100110001000101 !
#5395000
b10100000000101100010010100111100000 !
#5405000
b110111100011101100100011100011100100 !
#5415000
b11111001110011101110110000010 !
#5425000
b10101010101100011001001001110011110 !
#5435000
b1011110011010110101101111101101111 !
#5445000
b1101000011001101001101110010010 !
#5455000
b100001111011100001000110001100101100 !
#5465000
b111100001000010001000011101101011110 !
#5475000
b10111000000000101101001110110011101 !
#5485000
b101000000000100000011100100000010 !
#5495000
b10101010110011000110111010111 !
#5505000
b101110001001100101100000011111010110 !
#5515000
b11000000101011101111001001101001100 !
#5525000
b111001111110100011110011101111000101 !
#5535000
b110100010101101111000011001110011011 !
#5545000
b100100110101000000111011010010100110 !
#5555000
b100101111110001101111000111000110100 !
#5565000
b101100111101101010100101000001000 !
#5575000
b100001011011010100001101101010001101 !
#5585000
b110110111111111111011101010001111000 !
#5595000
b100101000110010000011100100001010 !
#5605000
b100100000111101010111111000110001111 !
#5615000
b111011000111001100001100101011100101 !
#5625000
b100111111111011100011010001001011000 !
#5635000
b1010111101000000100011100101101101 !
#5645000
b110011001000101010010011001011010001 !
#5655000
b10110010100011110100111001100001 !
#5665000
b100001011001001001110111010111010000 !
#5675000
b11001100100001101001111010010100110 !
#5685000
b110110111011010011010100101000011110 !
#5695000
b1010101101000010100100110010110 !
#5705000
b1001111111110101010000000011010111 !
#5715000
b110010010101111000111101010110111000 !
#5725000
b10110001011111100000000001011001011 !
#5735000
b111011011001100011010101011010110101 !
#5745000
b11011001011110010100111110100100110 !
#5755000
b100110111110111100110010100110111110 !
#5765000
b110110000100010000000110000111111110 !
#5775000
b110000110111000010111000110110110011 !
#5785000
b10110000100001111011001111101000 !
#5795000
b11111101100000011000101101101000110 !
#5805000
b1010101100000100011101000111111110 !
#5815000
b101010000001111000000010111110101011 !
#5825000
b1010111011111101010100011111111010 !
#5835000
b1011001001111010110100101100111111 !
#5845000
b110100110000110101001001000000011111 !
#5855000
b101110111110111111111110001100101001 !
#5865000
b1000100101011001011110000101110110 !
#5875000
b101101010111001101010111100010101101 !
#5885000
b11011001101100000111100010100010111 !
#5895000
b110110000110001111000010110101100010 !
#5905000
b111000101011011000010011111000111 !
#5915000
b110011001011010000000000011000001101 !
#5925000
b111010011000001101110101100010011001 !
#5935000
b111101100101000011001110111001100010 !
#5945000
b1100111110101100001101110111000001 !
#5955000
b101101010010110010100110110111111000 !
#5965000
b101101100001111011001100010110001 !
#5975000
b100101111001111100110110010110011010 !
#5985000
b111011110001001111101100001101001110 !
#5995000
b10011110100011011000100001011000110 !
#6005000
b110100101000001000111100000010100010 !
#6015000
b101111100011001111101000000101010110 !
#6025000
b101010111111110000110100111100111101 !
#6035000
b1111000110011111111010110111101111 !
#6045000
b11100110000110011010101111010100011 !
#6055000
b110011011001001000001100100111101011 !
#6065000
b101111011101111010011010111010101 !
#6075000
b10100010010010101001111100100000100 !
#6085000
b100010010000101001000110100101010011 !
#6095000
b101100110111111100010010100101101111 !
#6105000
b10101101100011000100011000100100 !
#6115000
b111001011001110001010010001011111010 !
#6125000
b110101000011100101111100111010001110 !
#6135000
b1001010101110101111011001001001 !
#6145000
b10011110101000100000000101100101000 !
#6155000
b111011101000101000011001000001100000 !
#6165000
b1110010001011011000110110001111011 !
#6175000
b100111011010011110101110010110100101 !
#6185000
b1100000001110111001000011100110111 !
#6195000
b111110110000000101110000011001010110 !
#6205000
b11100111001111101111101111101000010 !
#6215000
b10000010011011110100110000111110000 !
#6225000
b11011010100010111110111111101101000 !
#6235000
b1111000101101101000000100110111000 !
#6245000
b111001101001110110000000000010010000 !
#6255000
b100110101100000111101011011000111110 !
#6265000
b110010111001010110100010110001010001 !
#6275000
b11011011010010110000110100110001111 !
#6285000
b101111011011001000111000011101010000 !
#6295000
b101100001010001010011000110010010 !
#6305000
b11101101101111101010111100001101000 !
#6315000
b10110110010000101010101001010011000 !
#6325000
b10111111110011001010100011010101001 !
#6335000
b10110100100100101100101110001110000 !
#6345000
b111001111110101010011011111001011111 !
#6355000
b110100011111111110101110101111110001 !
#6365000
b101111100011001111010110101011110101 !
#6375000
b100101100110100010101110110101101111 !
#6385000
b10101110001110100101111111000001010 !
#6395000
b10010011111001011101010101101100111 !
#6405000
b1100110010101001110111001001100 !
#6415000
b110001110011101110000110110010110001 !
#6425000
b10110010101110101001000000111100000 !
#6435000
b11101111010010101010000011000100111 !
#6445000
b100000001011010000111011111011101111 !
#6455000
b101110001000100100001011111011101 !
#6465000
b100001001100001000110110001110011100 !
#6475000
b111001101000101100101111011010101000 !
#6485000
b110001111111100011010101101010110000 !
#6495000
b111011010100100001110010111110110010 !
#6505000
b11101111001001111011010100000111101 !
#6515000
b10110001010010011111000001011100111 !
#6525000
b110011110100101100101101001110010000 !
#6535000
b1100100010011000110011111100001101 !
#6545000
b110011110111100010100100110001001111 !
#6555000
b10001111000000111111010010010000001 !
#6565000
b100111111101010001101010010000101 !
#6575000
b100000111011111011100001001100111010 !
#6585000
b10000111000111011001111100010111 !
#6595000
b1000100110011010010010111011111110 !
#6605000
b111000100111110001110100101111001000 !
#6615000
b10010000100010111010001000001010010 !
#6625000
b10001011110010111010000111001101001 !
#6635000
b11101111110111101010100100100110010 !
#6645000
b101110010110000111101100001110000000 !
#6655000
b11101001110000110010001101011101011 !
#6665000
b100111000000000000111010000010100110 !
#6675000
b101001011110001001011110010110000000 !
#6685000
b11100111111110111010111111100001010 !
#6695000
b110011000001111011011101010100011111 !
#6705000
b1110100010011010111100011011111101 !
#6715000
b11100111011000110100101100101001110 !
#6725000
b100000110011100110011101001000011110 !
#6735000
b100101010011111100010111011001111 !
#6745000
b100010001001110000010111011011010 !
#6755000
b110001011000110001000111111000010000 !
#6765000
b110010101100010101111111111101000000 !
#6775000
b110110001101101110111011111110111010 !
#6785000
b100100101111110011101100110100101000 !
#6795000
b10100101010111100101011100010100 !
#6805000
b110100001101011111010101111101100110 !
#6815000
b111001010010000111110100110110111111 !
#6825000
b100011001011101110101110001100010111 !
#6835000
b111101000010010111101100101011011110 !
#6845000
b1011101111011011110111110000010101 !
#6855000
b1010100110001010111100100110111 !
#6865000
b111001100001010110000001011010011100 !
#6875000
b10100100001111011100100100010011 !
#6885000
b110011100000000110100011001010110100 !
#6895000
b111011001110101001011100000101101011 !
#6905000
b110010101100011011011010011011101111 !
#6915000
b101101110010111001001100111110110101 !
#6925000
b10110011100110111100000001001010 !
#6935000
b111111000011011010100011010011010010 !
#6945000
b111100011000111100100000010011001011 !
#6955000
b10001111001101101101010010010010101 !
#6965000
b110101110101111100000001011011001010 !
#6975000
b111011000011110110001111111010011111 !
#6985000
b110101110110011100101111110101111010 !
#6995000
b1011110101111100111010110110011011 !
#7005000
b101100100010011110101011100000011001 !
#7015000
b1010100101111101111010001010100011 !
#7025000
b11001001110011010010011000000110000 !
#7035000
b111110010100001011011100111110011 !
#7045000
b10111011101011000010010001111110100 !
#7055000
b10100111101011000010101000000100010 !
#7065000
b1101111010100001100101110110000000 !
#7075000
b10011001101010110111110001111110100 !
#7085000
b10000101001001110011111000101111101 !
#7095000
b111101101100000001001110011100100100 !
#7105000
b110110000000010111101111011100110 !
#7115000
b11101100011001100000111010110010110 !
#7125000
b111110100010110001011000000100100110 !
#7135000
b10111100101000011101100000011001111 !
#7145000
b101000000010101001100000111100001101 !
#7155000
b10010110111100010011111000111011010 !
