Virtuoso/202107/Virtuoso_Project/tsv_simu/tsv_simu/vcd_files/old/tns_13x13_100000.vcd
$date
	Sun Jan 10 22:04:07 2021
$end
$version
	QuestaSim Version 2020.1
$end
$timescale
	1ps
$end
$scope module Gen_TNS108_Random25 $end
$var reg 25 ! udata [24:0] $end
$upscope $end
$enddefinitions $end
#0
b0 !
#15000
b111111011011010101101000 !
#25000
b1011110000101111100111000 !
#35000
b10011000001111100111001 !
#45000
b1011011101100001100111110 !
#55000
b1110000000111110110011011 !
#65000
b1100010001100100010010111 !
#75000
b1100010011000110001100010 !
#85000
b100010110000100001110111 !
#95000
b11111011000011001001001 !
#105000
b11100010010000100011011 !
#115000
b1101110010011001001011010 !
#125000
b1001000111110111000000111 !
#135000
b1111011111111001100001000 !
#145000
b1001000011111011101001 !
#155000
b1010010000111101111111010 !
#165000
b1001000001000000101001011 !
#175000
b101000010101101011101100 !
#185000
b1100110010011001001101011 !
#195000
b111011100100100110101111 !
#205000
b10101100111001001110110 !
#215000
b11100011110111111101000 !
#225000
b1111111110001000110001101 !
#235000
b100011101010110000110010 !
#245000
b1011011000011111000000011 !
#255000
b1111100000011010111000110 !
#265000
b1000000100100111001111011 !
#275000
b1101001001000000110011111 !
#285000
b1101000110111000011101000 !
#295000
b100111110000110011111 !
#305000
b1010000010110110101100 !
#315000
b1100001110011110011001010 !
#325000
b1100000101000100101111101 !
#335000
b1001011111010101100001100 !
#345000
b1111100001001010010000101 !
#355000
b1001011110100111011111101 !
#365000
b1010100001001010011001 !
#375000
b1011110100110110111010100 !
#385000
b111000110111001100 !
#395000
b10110101101111010100001 !
#405000
b100111101110011101100100 !
#415000
b1100100011111101010101010 !
#425000
b1010001001111101101011111 !
#435000
b101111011110001100011100 !
#445000
b1000000110000011111000011 !
#455000
b1110001000101111000111000 !
#465000
b11100010101111011001000 !
#475000
b1001011101011100000001111 !
#485000
b1110011101101011101011000 !
#495000
b1000001000101101000011110 !
#505000
b101110110111100011101001 !
#515000
b1001010110111000100100100 !
#525000
b1100011011010111011010100 !
#535000
b1111001110011011110100010 !
#545000
b101000100011011000101101 !
#555000
b101011011010100100010000 !
#565000
b1110010111110000011110 !
#575000
b11101010000000000111110 !
#585000
b110101000011101101000110 !
#595000
b111110001101011101000010 !
#605000
b1100011010110111011110111 !
#615000
b1101110101101000010101100 !
#625000
b1011110110101101100100001 !
#635000
b1100100010010001011110011 !
#645000
b100101111110101010111010 !
#655000
b1000111010011001010011111 !
#665000
b100100110001011011011100 !
#675000
b1101011110001111100001001 !
#685000
b11010101000000101001001 !
#695000
b1001000100000110110000000 !
#705000
b1100111100001010111110101 !
#715000
b1100110110011001010110111 !
#725000
b1111011111011110011011010 !
#735000
b1010000000011010011110001 !
#745000
b1100010101101101100001000 !
#755000
b111011001000001000111 !
#765000
b1111110100111001001000001 !
#775000
b1100101110100000111110011 !
#785000
b1000000110100100000001111 !
#795000
b100001010011001101010010 !
#805000
b1001010000001100011111110 !
#815000
b101111011110100011100100 !
#825000
b1000010010100001011011110 !
#835000
b1100001111101010100011010 !
#845000
b1111000101001010010100111 !
#855000
b1011100000010000100101001 !
#865000
b101001001110011101111 !
#875000
b111011000001000000000 !
#885000
b1000001100110100001101 !
#895000
b1111000010111110000001010 !
#905000
b1011001011000001000011010 !
#915000
b1010100101000111010101 !
#925000
b1101001011000011010110000 !
#935000
b110111001100000010001111 !
#945000
b1111111011100000000110111 !
#955000
b110000111000111100000111 !
#965000
b11001011010010011101110 !
#975000
b1010011011101000101111110 !
#985000
b1010110001011110110001111 !
#995000
b111111011100111011100001 !
#1005000
b1000001110101010111111101 !
#1015000
b111100111010000101101101 !
#1025000
b1100111110111001101000001 !
#1035000
b10110101101101100110111 !
#1045000
b1101100000000101111000 !
#1055000
b1001010001001111010011010 !
#1065000
b1010000010011010101010100 !
#1075000
b11111010011011001101111 !
#1085000
b1000001101011001000101011 !
#1095000
b1001101101000010000111 !
#1105000
b111110100100011100110011 !
#1115000
b1001011011011110111110100 !
#1125000
b11111010110000011111001 !
#1135000
b1000100001000111111000111 !
#1145000
b100011111000010001100011 !
#1155000
b1000010100011101100000011 !
#1165000
b1010000111101100101001 !
#1175000
b11110100101100110011100 !
#1185000
b11001101011001001110010 !
#1195000
b111111110011010000100101 !
#1205000
b1111111111110001110110010 !
#1215000
b1000010111011000111111001 !
#1225000
b10010000110000001001110 !
#1235000
b1011001100001101010001010 !
#1245000
b10101110111001010110011 !
#1255000
b101011110101101101111 !
#1265000
b1001100101001111011000101 !
#1275000
b1010011010011000100110111 !
#1285000
b1100110110011101000000 !
#1295000
b1011011001010000011110111 !
#1305000
b1001110101010000110011101 !
#1315000
b1010000011011001100000011 !
#1325000
b101110100011110111111011 !
#1335000
b1110111000001101111110010 !
#1345000
b1110110010100111011000010 !
#1355000
b1111101101000100000101 !
#1365000
b100011110111010100011100 !
#1375000
b111100111111101000110101 !
#1385000
b11100000001011110101010 !
#1395000
b1100101101100111001100101 !
#1405000
b1010011110101100011000001 !
#1415000
b101011111010100100110011 !
#1425000
b1110011110010101100011010 !
#1435000
b110110101110000101011010 !
#1445000
b110000101101100111111001 !
#1455000
b11111101101110101000 !
#1465000
b1100110010000011010110100 !
#1475000
b110000001000111000011110 !
#1485000
b100010000110010111001011 !
#1495000
b1000111100011011101001011 !
#1505000
b1101011001011000110000001 !
#1515000
b1110000001100100111001111 !
#1525000
b1110001110111010110101000 !
#1535000
b1111011111000100110101 !
#1545000
b10000111011011000111100 !
#1555000
b1101101010010101001010101 !
#1565000
b101111111011001010111110 !
#1575000
b10101011011001111010111 !
#1585000
b100010001111000000100001 !
#1595000
b110101001100101011011 !
#1605000
b1111111111101010110001000 !
#1615000
b1000011100001111011100000 !
#1625000
b110011100010001010111000 !
#1635000
b101110000000010100101000 !
#1645000
b1100111011111010011001001 !
#1655000
b10010001110111001000101 !
#1665000
b1100100101100000101111010 !
#1675000
b10101100110111011000110 !
#1685000
b1101011001110001000100 !
#1695000
b111011000111001101010 !
#1705000
b100100100101110110000001 !
#1715000
b1011100011111010101001010 !
#1725000
b111011000100100101100110 !
#1735000
b110110110000001000111001 !
#1745000
b1100011100111101111010100 !
#1755000
b1011010100000011000100011 !
#1765000
b1000011001100011011101000 !
#1775000
b1101110011111110110001 !
#1785000
b101100011111000001000101 !
#1795000
b1111100100111011111110011 !
#1805000
b110011001010011101010 !
#1815000
b111101101100111111011010 !
#1825000
b11011111110110001101010 !
#1835000
b1100100100001000011101101 !
#1845000
b1101000111111110100111010 !
#1855000
b110000101101100101011011 !
#1865000
b10110010000100101010010 !
#1875000
b1000001011001101100101001 !
#1885000
b1100000011010001001110001 !
#1895000
b1100000111100001000110011 !
#1905000
b1001010011100111101001001 !
#1915000
b1010110010101000010011000 !
#1925000
b1100110010011110110110000 !
#1935000
b1010011101110011111010 !
#1945000
b1111010100110010110110101 !
#1955000
b110001000010110010010010 !
#1965000
b1101000100001100100010100 !
#1975000
b110111011010001010001100 !
#1985000
b100100011101011101110 !
#1995000
b1111100011110010100000010 !
#2005000
b1000111001100101101001100 !
#2015000
b100000101100110110000010 !
#2025000
b1011000111101101111100001 !
#2035000
b1100010011111000110011011 !
#2045000
b10001000010011010100000 !
#2055000
b1000001010110110010010111 !
#2065000
b1001010110101100001010110 !
#2075000
b1101100011000011001111000 !
#2085000
b10111110111001010000101 !
#2095000
b1101001001111110001000111 !
#2105000
b1111010010111111110111100 !
#2115000
b1010011010110111110011011 !
#2125000
b1011101000010001100010100 !
#2135000
b1001101000001110111100001 !
#2145000
b1111110010100101111001101 !
#2155000
b1111001011100011110111100 !
#2165000
b11100001000101011010110 !
#2175000
b110101110000011110100010 !
#2185000
b100101001010000111000101 !
#2195000
b1100011101110110011101011 !
#2205000
b1011101101100010011010111 !
#2215000
b111101010001111101011000 !
#2225000
b1100110011111011101101000 !
#2235000
b10111101011100101110011 !
#2245000
b10110110111100000100011 !
#2255000
b1010011010110101011010 !
#2265000
b110001111111111110110101 !
#2275000
b110110101000101100101100 !
#2285000
b101110000011110100111 !
#2295000
b1111100101010110100011110 !
#2305000
b1001100100101001101111011 !
#2315000
b1111010110010110000010011 !
#2325000
b111010010001101011110010 !
#2335000
b1010101001011100001111101 !
#2345000
b1100111101111010100001111 !
#2355000
b1101001101101000100111101 !
#2365000
b1100100100101001001110011 !
#2375000
b1000001110100111010000110 !
#2385000
b111001111010111000100111 !
#2395000
b1101010001111101101011010 !
#2405000
b1110001010010100000101001 !
#2415000
b100010010111101010110110 !
#2425000
b101011001011001101100011 !
#2435000
b1110011010010101011101011 !
#2445000
b1110010000011100011101011 !
#2455000
b110100000001010101111101 !
#2465000
b100011101010110110110111 !
#2475000
b111100011010101011011000 !
#2485000
b1101000101010100111011111 !
#2495000
b1110111000100011100100111 !
#2505000
b1010010101010101100011000 !
#2515000
b1100000010010010101001111 !
#2525000
b100001010010011100111000 !
#2535000
b1001000100111100010010 !
#2545000
b101000000100100010110111 !
#2555000
b1110001000010111111101 !
#2565000
b111010111100001001100000 !
#2575000
b11010000000011101001100 !
#2585000
b100100000000100000111011 !
#2595000
b1010101111110111001001010 !
#2605000
b1000000011001010010000110 !
#2615000
b1100100111001111011011011 !
#2625000
b110001011010101011001010 !
#2635000
b1010011010101111100111 !
#2645000
b1000000000111011110001001 !
#2655000
b11011100011110011011001 !
#2665000
b1011110000101111011010001 !
#2675000
b1110011010010001001010010 !
#2685000
b110100110001000111001010 !
#2695000
b1000111100011101110110000 !
#2705000
b1110100111111010110011 !
#2715000
b1110110111001111010010111 !
#2725000
b1111111001000110100001 !
#2735000
b1100111110001010001010010 !
#2745000
b1110111001011011111110010 !
#2755000
b10001001011100101001100 !
#2765000
b111100011111011001111101 !
#2775000
b1100001110111010100010011 !
#2785000
b110100001101010110001010 !
#2795000
b11010000110101011001 !
#2805000
b1111010000110011001101001 !
#2815000
b1001101001111101001001110 !
#2825000
b1100110001110110101111001 !
#2835000
b11000110010101001100100 !
#2845000
b1100000100000010010101101 !
#2855000
b10100111100111011111 !
#2865000
b1110010110101101011000010 !
#2875000
b101011000111000100010100 !
#2885000
b1111000101100100011100101 !
#2895000
b1111011000111100001111010 !
#2905000
b111001010100100110110111 !
#2915000
b10111111011100010100001 !
#2925000
b1100001010010100011011101 !
#2935000
b1000101111010100111000110 !
#2945000
b110001110100001010101001 !
#2955000
b111101011100101001101100 !
#2965000
b110110101100000011111100 !
#2975000
b100011101010100111100001 !
#2985000
b111011011011000101010110 !
#2995000
b1111001011100010011101011 !
#3005000
b1001010110110000100100 !
#3015000
b10010011100011111110111 !
#3025000
b101010010011111010101111 !
#3035000
b1000100001001000001111001 !
#3045000
b1000001110000000000101001 !
#3055000
b1111100001100011011000111 !
#3065000
b1010111101111011110101100 !
#3075000
b110001001100101001100101 !
#3085000
b1010111000000010100010110 !
#3095000
b1110110011011111011011010 !
#3105000
b1101001100100101101111011 !
#3115000
b1101101101011010111101 !
#3125000
b110011111001111011010100 !
#3135000
b11010110001101010001000 !
#3145000
b111000010000100000010110 !
#3155000
b1011111010001111101000100 !
#3165000
b1010000100011001010001101 !
#3175000
b110110101110101010010000 !
#3185000
b110111000010100000001001 !
#3195000
b1100000111011001100110000 !
#3205000
b110000011011000100110000 !
#3215000
b1010011010001101110000 !
#3225000
b10000100111011001010 !
#3235000
b10011000000010110000011 !
#3245000
b100011011101101011101110 !
#3255000
b100011100010101001110 !
#3265000
b1100001100110001110111101 !
#3275000
b110100000001001011011010 !
#3285000
b1010000110110101110111 !
#3295000
b1001011001011101000011 !
#3305000
b1011100011010101011111111 !
#3315000
b1111101000011010111010 !
#3325000
b10111001011101101100001 !
#3335000
b1010000100011110011101 !
#3345000
b111100000010101000101 !
#3355000
b1110000010101110001000000 !
#3365000
b1011000011011101011100111 !
#3375000
b1110000100000110000111101 !
#3385000
b11111111001001011000101 !
#3395000
b1101001110101110011010110 !
#3405000
b110111111000001011001001 !
#3415000
b110011111111001111100001 !
#3425000
b1111100010100000100010011 !
#3435000
b1010001010101111001010110 !
#3445000
b1101100001000011011100100 !
#3455000
b100111011110001101011011 !
#3465000
b111000101110111001011110 !
#3475000
b1010100010010000000100010 !
#3485000
b110011100110110110100001 !
#3495000
b111011111000100100010000 !
#3505000
b1110111101001110010001100 !
#3515000
b1010101111111101011100110 !
#3525000
b1110111101001100000111101 !
#3535000
b101111010001111011100 !
#3545000
b1000001110011010010010001 !
#3555000
b1010110110110101101010100 !
#3565000
b100100001101100110100100 !
#3575000
b1011101000001001100110010 !
#3585000
b100110010000101101000010 !
#3595000
b10010111111010111111101 !
#3605000
b1111011111110011111 !
#3615000
b1000000001101110100110110 !
#3625000
b1101011101101111001101110 !
#3635000
b1000010110110001011011111 !
#3645000
b1110000000010110110 !
#3655000
b110010010111101011111101 !
#3665000
b110111010011000000000001 !
#3675000
b10110110011101010000001 !
#3685000
b1101100100001101110100101 !
#3695000
b10010011100110010110101 !
#3705000
b111001101001001000100001 !
#3715000
b1001110100010010000101101 !
#3725000
b111011001010111100101 !
#3735000
b11011001011011100011110 !
#3745000
b1111100111011100101011000 !
#3755000
b1100010010110011000001001 !
#3765000
b111011100010010010001111 !
#3775000
b111010111011011100111001 !
#3785000
b110110001100000011011111 !
#3795000
b1010001010011011011111001 !
#3805000
b10011011001100010011011 !
#3815000
b1000101001010100010001100 !
#3825000
b10011101101011011000 !
#3835000
b1101100010010010001111 !
#3845000
b1100101010100111000100110 !
#3855000
b111000010110010001100001 !
#3865000
b1111001010101010101111010 !
#3875000
b110110101101110100010101 !
#3885000
b1000101111100101010011111 !
#3895000
b1011000011000001100011011 !
#3905000
b1101110010100001101010110 !
#3915000
b1101110001000010010011010 !
#3925000
b1001111111110001000101000 !
#3935000
b1110000100000110000101100 !
#3945000
b1100101110011001100000 !
#3955000
b1100111000111100011 !
#3965000
b11110011100101011110011 !
#3975000
b1110011010000101100100101 !
#3985000
b11100100110000111000111 !
#3995000
b1110111101100011100110 !
#4005000
b1100010010110011010001 !
#4015000
b1001100011011001111010000 !
#4025000
b1000101001010111100010001 !
#4035000
b1010000011011111011001100 !
#4045000
b111011011111011000111111 !
#4055000
b1000010111010110010011 !
#4065000
b1010000111010110110011 !
#4075000
b1001100101110101111010101 !
#4085000
b1000000111101011111011101 !
#4095000
b10000110011110111011111 !
#4105000
b101101100011000011000110 !
#4115000
b1101001101101000100001101 !
#4125000
b1111010100101101011001001 !
#4135000
b1000001011000010000000100 !
#4145000
b110010010101111100001001 !
#4155000
b110110001101001011010111 !
#4165000
b101011110100011001101000 !
#4175000
b11110110001010101000 !
#4185000
b1100000110100101111100 !
#4195000
b1001100000010000101010110 !
#4205000
b11001101001110000110001 !
#4215000
b10111100001011101101110 !
#4225000
b1110011110010101001000011 !
#4235000
b1111111100010100011101001 !
#4245000
b10001111010100010100 !
#4255000
b10111110101100110111 !
#4265000
b1001010111011101101101011 !
#4275000
b101101101111110011001 !
#4285000
b11011001000111011001011 !
#4295000
b1001100001101011001100010 !
#4305000
b110101001011101100001 !
#4315000
b1010111110101000010010010 !
#4325000
b1011111101111111100111110 !
#4335000
b111101001011101111101011 !
#4345000
b101101100001001010110011 !
#4355000
b1100110100100101000100100 !
#4365000
b100111111100101010110100 !
#4375000
b1101010011000100001011110 !
#4385000
b1010001010110000010100001 !
#4395000
b1110100001100011010100011 !
#4405000
b1101100000001101111001010 !
#4415000
b10000110010101000000100 !
#4425000
b100101111110101101100100 !
#4435000
b1100001000110010001101110 !
#4445000
b1100110101101001001101101 !
#4455000
b1011010100001110111010 !
#4465000
b101000000000011000011110 !
#4475000
b101011101010110000110101 !
#4485000
b111000000100110000110000 !
#4495000
b1101001010111011010101011 !
#4505000
b1000100011111100000010101 !
#4515000
b1111101110001111000110101 !
#4525000
b1100101011110011011110110 !
#4535000
b1000110101110100101101010 !
#4545000
b1101101100011010110000110 !
#4555000
b1100111100111011110011111 !
#4565000
b1110110101010011010011100 !
#4575000
b1000100000010010101 !
#4585000
b1010110110110111001 !
#4595000
b1011101001010011010001111 !
#4605000
b111100101001011001001 !
#4615000
b111111111000001001100011 !
#4625000
b10000101101001110111011 !
#4635000
b1110011110010110110100111 !
#4645000
b1011110100000011001100110 !
#4655000
b101101111000110011000101 !
#4665000
b1111100111110011110001100 !
#4675000
b110001110000100000000111 !
#4685000
b101000001001110101101001 !
#4695000
b1111010010000001110101011 !
#4705000
b10010100010110100110110 !
#4715000
b1000001011101000010111100 !
#4725000
b1110100100011101000110110 !
#4735000
b1100001100111011110000100 !
#4745000
b110101100010011101111 !
#4755000
b1010011011001100111110010 !
#4765000
b101111101010000011110000 !
#4775000
b111001001001000010001011 !
#4785000
b1000100010001111010001111 !
#4795000
b110010111111100100000101 !
#4805000
b1100011111100110000110100 !
#4815000
b111100000001100111101110 !
#4825000
b1000111111011100111100 !
#4835000
b1000011100101110110001001 !
#4845000
b100010100010100011010111 !
#4855000
b101000001111101010001001 !
#4865000
b11011001011100011101 !
#4875000
b11111101010001000101000 !
#4885000
b11100001010001110010000 !
#4895000
b100110010110010100000001 !
#4905000
b111010111100110100100011 !
#4915000
b100010001100000010000001 !
#4925000
b101011110110000110101000 !
#4935000
b1000010011010111101000000 !
#4945000
b1001000100111011111001110 !
#4955000
b11011010001010001100010 !
#4965000
b10100010110110100011000 !
#4975000
b111001010100011101010101 !
#4985000
b1100101100110111110110000 !
#4995000
b100110101010101011010101 !
#5005000
b100000101010111111001011 !
#5015000
b1111001110110011111000000 !
#5025000
b1000100110000010010101010 !
#5035000
b1010111101111000111001111 !
#5045000
b110111101101111111110011 !
#5055000
b111000001000001001011100 !
#5065000
b1110010101111000000010010 !
#5075000
b100011011110111100000010 !
#5085000
b110001001001000101111000 !
#5095000
b11001100011001001111011 !
#5105000
b1010000010011001000001010 !
#5115000
b110011011000011101110111 !
#5125000
b100100000111001111011010 !
#5135000
b1110011101100010111011110 !
#5145000
b11101101100110010011000 !
#5155000
b1001000111110100011001110 !
#5165000
b1101111010110011101110100 !
#5175000
b1110001001110011000100010 !
#5185000
b10101000001001100111010 !
#5195000
b101101011000010110011101 !
#5205000
b1001100011100110010010001 !
#5215000
b101110001011101010100000 !
#5225000
b1001010010100011101111010 !
#5235000
b10111110011001100011111 !
#5245000
b10100010010011101101010 !
#5255000
b10111010000100011101011 !
#5265000
b100110000011010100111010 !
#5275000
b1011111101111111000000110 !
#5285000
b110001001110111001010100 !
#5295000
b101011110110000100110101 !
#5305000
b100101000111111100001000 !
#5315000
b1101010000010011111011100 !
#5325000
b1101110000111000000100001 !
#5335000
b110111111110011001111100 !
#5345000
b1100001101001100101100111 !
#5355000
b11100111101001111000111 !
#5365000
b110100110111110100000010 !
#5375000
b1001100101000110111111001 !
#5385000
b1100111010011000110011011 !
#5395000
b1101111001100101101011101 !
#5405000
b1100011001001110000001011 !
#5415000
b1100111100111000010110001 !
#5425000
b1010000010111100111000110 !
#5435000
b1100001101101111001100011 !
#5445000
b101111110101110011101011 !
#5455000
b1000000110010011000010010 !
#5465000
b100101111011100010111 !
#5475000
b110011111010011101111100 !
#5485000
b1010100001111011010000100 !
#5495000
b1001011011111111001100000 !
#5505000
b1101100001100011110011 !
#5515000
b1011100001110111010011011 !
#5525000
b1111000011111011011011001 !
#5535000
b111010001110000001011001 !
#5545000
b1110110101001100010000000 !
#5555000
b11101010101000101101101 !
#5565000
b11101100110110111000110 !
#5575000
b1001110010111001000001 !
#5585000
b1010100100101000100011001 !
#5595000
b110111111111101000011 !
#5605000
b1000111100100110000111100 !
#5615000
b101000001100011010100100 !
#5625000
b100111001001111101011001 !
#5635000
b10011111110110011010010 !
#5645000
b111101110001010010010111 !
#5655000
b110111101010000100101100 !
#5665000
b1010001000100110000000010 !
#5675000
b101101001100110111001111 !
#5685000
b110011001100010000011101 !
#5695000
b1110000010101111100001101 !
#5705000
b11001110001111011110101 !
#5715000
b1001101010011111001011101 !
#5725000
b11100001001010111101 !
#5735000
b101110001100100101010110 !
#5745000
b110000110111010000001010 !
#5755000
b101001110111011100110000 !
#5765000
b1010011101100110000110111 !
#5775000
b1000010001111110001100110 !
#5785000
b111010100111111010101010 !
#5795000
b110000101011010110010110 !
#5805000
b101010111001001100111001 !
#5815000
b11110101000010101111011 !
#5825000
b11111111001000110000111 !
#5835000
b100110000010010000111010 !
#5845000
b1100000000000010011001010 !
#5855000
b1011011101001100101001010 !
#5865000
b11010111111000000001011 !
#5875000
b100111001011111111111101 !
#5885000
b1111100000001111101110110 !
#5895000
b111111101101100011011100 !
#5905000
b100010010000011001101111 !
#5915000
b1010010111110111001110110 !
#5925000
b1110000101001001000010110 !
#5935000
b1010000110111001011100100 !
#5945000
b110000000010011110000000 !
#5955000
b1011010100000100110100010 !
#5965000
b111011011101001011101110 !
#5975000
b110010001010000001010111 !
#5985000
b1001010101010010000110101 !
#5995000
b1010111011100100011100111 !
#6005000
b1010011101100100100000101 !
#6015000
b1100111000001001110010110 !
#6025000
b1101100000101110001 !
#6035000
b11110100100110101101000 !
#6045000
b110101010011001111100111 !
#6055000
b1101110101101010111010000 !
#6065000
b1011101011100010000000010 !
#6075000
b10011110010101011011000 !
#6085000
b111100010110011011010011 !
#6095000
b1111010110011010001011101 !
#6105000
b100110111110111011001111 !
#6115000
b100010011001101011101011 !
#6125000
b1001110010101011001110110 !
#6135000
b111010110010011101110 !
#6145000
b1001110011110100110001010 !
#6155000
b11111011001000100010110 !
#6165000
b111100111001100000010101 !
#6175000
b1011110000101010001110011 !
#6185000
b1110011000011001001101000 !
#6195000
b110100100100110110111 !
#6205000
b1110100100111110101110101 !
#6215000
b1111100101010001101101100 !
#6225000
b111011011010100001001000 !
#6235000
b1100111000000000001111111 !
#6245000
b1111100110110110000111100 !
#6255000
b101011110010111110010010 !
#6265000
b1010100100100110011110110 !
#6275000
b1010000100101010001010111 !
#6285000
b1100110011000110001011111 !
#6295000
b10100100000100000100 !
#6305000
b1011011101010100101000100 !
#6315000
b10111111111100111111001 !
#6325000
b110011011111101000101001 !
#6335000
b1101010001101000110100000 !
#6345000
b100110101111100111010001 !
#6355000
b1100000011000010000111010 !
#6365000
b111011010000101011011 !
#6375000
b10000110010101111010001 !
#6385000
b1010000101001011101011 !
#6395000
b100011100010111100100111 !
#6405000
b110010111100111010011 !
#6415000
b1101010010000110110111001 !
#6425000
b1001010101110111100001110 !
#6435000
b111111100001001100000111 !
#6445000
b100000001000110111001000 !
#6455000
b101001000000010000100010 !
#6465000
b1101101110001010111110010 !
#6475000
b111100101010111000000000 !
#6485000
b10010001101011101011001 !
#6495000
b1100111110011110000100101 !
#6505000
b100001010110111100100001 !
#6515000
b11110000001101110111011 !
#6525000
b100011010101101000111000 !
#6535000
b1101110111110101010100111 !
#6545000
b101010000000100010011111 !
#6555000
b1001001110100010011010 !
#6565000
b111101101111010010011101 !
#6575000
b1111101011001111000110111 !
#6585000
b1000010111110100101111101 !
#6595000
b1100001000001100010101111 !
#6605000
b1110011010111100101111111 !
#6615000
b1011110010101111010100011 !
#6625000
b1110111010011101101111 !
#6635000
b100010100101111011011110 !
#6645000
b1010011100111100110000100 !
#6655000
b10110001101100011001011 !
#6665000
b100011011101000000100110 !
#6675000
b111100011110001001101110 !
#6685000
b1101001011000100110100101 !
#6695000
b1110110110001001011001 !
#6705000
b110101100111101001011000 !
#6715000
b11111010101100000101011 !
#6725000
b1000001110000000111001 !
#6735000
b1011110111101110011000110 !
#6745000
b101100101111001000011110 !
#6755000
b10110101000000100001110 !
#6765000
b101010001110001000001111 !
#6775000
b101100000101011010000001 !
#6785000
b1011001110010011010101110 !
#6795000
b11101101001010101110111 !
#6805000
b1111110011000001101101110 !
#6815000
b1101011101011011001001111 !
#6825000
b1110011010011100010000111 !
#6835000
b1011011000000110110101110 !
#6845000
b1000111110110100101100111 !
#6855000
b1010111111011011100011110 !
#6865000
b1011101111010101010010100 !
#6875000
b1110011001110011111101011 !
#6885000
b1111101010011111111010 !
#6895000
b101000001100011001100111 !
#6905000
b101010100111001010101011 !
#6915000
b1000101001001010110010011 !
#6925000
b1011011101001101010101101 !
#6935000
b1111001111001110110011100 !
#6945000
b1110011011100010111110001 !
#6955000
b110101000100010110111 !
#6965000
b111101101000011001011001 !
#6975000
b1101111011011110011101111 !
#6985000
b11101111101101000000010 !
#6995000
b11001100001011111001111 !
#7005000
b1101010000110110100100001 !
#7015000
b10101111001111000101100 !
#7025000
b10001010100101000010010 !
#7035000
b1000100110000100100000110 !
#7045000
b100010000000101100111001 !
#7055000
b11101000100100100100 !
#7065000
b10010101101011011011010 !
#7075000
b1000001101101110000001 !
#7085000
b101001110001001 !
#7095000
b1111011111011110110011000 !
#7105000
b1000011000111101111010000 !
#7115000
b1101010011101001010110110 !
#7125000
b11000110010111110101 !
#7135000
b1010110110000000110110100 !
#7145000
b10111010110110111 !
#7155000
b11101010000110011000111 !
#7165000
b1000100000000101000110 !
#7175000
b11100000010110000001100 !
#7185000
b1001100001001101000000011 !
#7195000
b1011001010101110000010100 !
#7205000
b111101110001100100100101 !
#7215000
b1101011101100011000010011 !
#7225000
b101110001011101101001010 !
#7235000
b101001101111010001100100 !
#7245000
b1000110110000100110 !
#7255000
b1000100011100010100011 !
#7265000
b101110001100111110101001 !
#7275000
b1010000101010010100101011 !
#7285000
b1010110101110010101010100 !
#7295000
b101001111010100010111011 !
#7305000
b1000001101111100010011010 !
#7315000
b1111111101011111010101010 !
#7325000
b110000010111000010101 !
#7335000
b10011010000011010110010 !
#7345000
b1011010000111001011101101 !
#7355000
b1000111000010111100010100 !
#7365000
b1100100000100001111111100 !
#7375000
b1101001110101100111101000 !
#7385000
b11100101111100011101111 !
#7395000
b1010010001111101011001001 !
#7405000
b110110111011010110001000 !
#7415000
b1111110001011111001010000 !
#7425000
b10110000110100010000111 !
#7435000
b11011111111100010111011 !
#7445000
b1100010100100101001101101 !
#7455000
b1010100111100000010100101 !
#7465000
b1011110100100110000010000 !
#7475000
b1001110001100010010110100 !
#7485000
b111110100101011010011100 !
#7495000
b101011011011000101 !
#7505000
b1000010101011100101010100 !
#7515000
b110001001110011000001011 !
#7525000
b1100111001011101111111110 !
#7535000
b1010000010001011010110001 !
#7545000
b1011001011011100111010100 !
#7555000
b111111010000011011000111 !
#7565000
b100010001110100111100011 !
#7575000
b100011001101101111100100 !
#7585000
b111010000000111100001111 !
#7595000
b1101101011010111100110001 !
#7605000
b1100001000001001101100 !
#7615000
b1000010111000110110110000 !
#7625000
b1101010100000101101101 !
#7635000
b110111110111100111011111 !
#7645000
b1011111011001100000111100 !
#7655000
b111110000101100111110 !
#7665000
b10110100000100011001000 !
#7675000
b1111101111111010010010001 !
#7685000
b100001000110110011100101 !
#7695000
b1110101100110110001110100 !
#7705000
b1110011110010010110000001 !
#7715000
b1001001010101010010100001 !
#7725000
b11100101000101010011101 !
#7735000
b100111101001001000000010 !
#7745000
b1010011110010000100110111 !
#7755000
b110110101001011001011001 !
#7765000
b11011011110001110100001 !
#7775000
b1001101011001110000100011 !
#7785000
b10011000000110010001111 !
#7795000
b110000100111100100010011 !
#7805000
b10101010001100011010111 !
#7815000
b1000010111100100011111110 !
#7825000
b11011001111001010100111 !
#7835000
b10110010001110010111110 !
#7845000
b11111001000001110100010 !
#7855000
b1110111000110010011111111 !
#7865000
b111111011101111010001001 !
#7875000
b10000001001110000100110 !
#7885000
b111000111110000010110111 !
#7895000
b1110011101000110111110110 !
#7905000
b1101100011000101110100001 !
#7915000
b1010110101111001111001110 !
#7925000
b110110111111110001000101 !
#7935000
b1110010101100000000100011 !
#7945000
b111001111011001010110001 !
#7955000
b100100011010100001001010 !
#7965000
b1000110000101011001001111 !
#7975000
b1111011101100111111000110 !
#7985000
b110110000010110111001011 !
#7995000
b1001011000011000010101101 !
#8005000
b1011101000111100010010110 !
#8015000
b1111110001111011000100010 !
#8025000
b100000110111101000100001 !
#8035000
b1110101010111100001010111 !
#8045000
b110110100011101001010110 !
#8055000
b11101001000000011101011 !
#8065000
b1101000011000001101011 !
#8075000
b1010111100101111110001011 !
#8085000
b101011001000011010001010 !
#8095000
b111011001110101100011101 !
#8105000
b1000011111110111110101101 !
#8115000
b1010011000110101011000010 !
#8125000
b1101000101011011010100001 !
#8135000
b10110010101000110111 !
#8145000
b111010010100111110111111 !
#8155000
b11000100110001010110010 !
#8165000
b110101001101110000011101 !
#8175000
b100110100010001101100011 !
#8185000
b1010000110100001001110001 !
#8195000
b1101111110111001110011110 !
#8205000
b111100010001110100100010 !
#8215000
b1110000001011110011110101 !
#8225000
b101000100000100001011110 !
#8235000
b1101011000000001011110001 !
#8245000
b1001010011001110010011100 !
#8255000
b100000110111001111001111 !
#8265000
b1010001101100001110100101 !
#8275000
b1010010111001101110010111 !
#8285000
b1111000101000111011110001 !
#8295000
b1001101011001101001000001 !
#8305000
b101001011101011101110010 !
#8315000
b100101001000111111110000 !
#8325000
b100011010001010110110110 !
#8335000
b1111100110001100111101 !
#8345000
b1100101100000010110100011 !
#8355000
b1010011011110111101110111 !
#8365000
b1010000100010110010001011 !
#8375000
b1110100000110010010100 !
#8385000
b1111100001001001101000001 !
#8395000
b1011010011100000111001000 !
#8405000
b1110011101100011011100110 !
#8415000
b1110110011011100011000110 !
#8425000
b1111100100010110010011100 !
#8435000
b1111011111111010101011000 !
#8445000
b11111100011111000110010 !
#8455000
b11100011011110101001001 !
#8465000
b110101110000100111010001 !
#8475000
b1111110110110001111110000 !
#8485000
b1000001000110110110000100 !
#8495000
b11101101110110011110001 !
#8505000
b110101111010100111010 !
#8515000
b100000101011101111000101 !
#8525000
b1001001101110110100110000 !
#8535000
b10101110001001011011110 !
#8545000
b1101111101010010101010101 !
#8555000
b1110010101010001101101110 !
#8565000
b1001111111011101111110011 !
